{
  "contenidoStr": "\"{\\n  \\\"name\\\": \\\"archivos\\\",\\n  \\\"version\\\": \\\"1.0.0\\\",\\n  \\\"description\\\": \\\"\\\",\\n  \\\"main\\\": \\\"index.js\\\",\\n  \\\"scripts\\\": {\\n    \\\"test\\\": \\\"echo \\\\\\\"Error: no test specified\\\\\\\" && exit 1\\\"\\n  },\\n  \\\"author\\\": \\\"\\\",\\n  \\\"license\\\": \\\"ISC\\\"\\n}\\n\"",
  "contenidoObj": {
    "name": "archivos",
    "version": "1.0.0",
    "description": "",
    "main": "index.js",
    "scripts": {
      "test": "echo \"Error: no test specified\" && exit 1"
    },
    "author": "",
    "license": "ISC"
  },
  "autor": ""
}